P8105_hw1_dry2115
…
A data frame was created containing two normal random samples of size n= 1000.

df_normal = tibble(
  
    x = rnorm(1000),
    y = rnorm(1000),
  
    positive_sum = (x + y > 0),
    num_coerce = as.numeric(positive_sum),
    factor_coerce = as.factor(positive_sum)
)

df_normal

## # A tibble: 1,000 x 5
##          x      y positive_sum num_coerce factor_coerce
##      <dbl>  <dbl> <lgl>             <dbl> <fct>        
##  1 -0.145   1.26  TRUE                  1 TRUE         
##  2 -1.10   -0.360 FALSE                 0 FALSE        
##  3  0.383  -1.67  FALSE                 0 FALSE        
##  4 -0.400  -2.23  FALSE                 0 FALSE        
##  5 -0.814  -2.05  FALSE                 0 FALSE        
##  6 -0.433  -0.484 FALSE                 0 FALSE        
##  7  0.0847  0.558 TRUE                  1 TRUE         
##  8  0.821  -1.16  FALSE                 0 FALSE        
##  9 -1.56    1.67  TRUE                  1 TRUE         
## 10  0.0165 -1.31  FALSE                 0 FALSE        
## # ... with 990 more rows
…
